1. Австралійський долар to UAH: 24.309
2. Канадський долар to UAH: 26.6166
3. Юань Женьміньбі to UAH: 5.3036
4. Чеська крона to UAH: 1.6134
5. Данська крона to UAH: 5.1991
6. Гонконгівський долар to UAH: 4.6585
7. Форинт to UAH: 0.097667
8. Індійська рупія to UAH: 0.44196
9. Рупія to UAH: 0.0023761
10. Новий ізраїльський шекель to UAH: 9.9688
11. Єна to UAH: 0.27632
12. Теньге to UAH: 0.07881
13. Вона to UAH: 0.027866
14. Мексиканське песо to UAH: 1.9159
15. Молдовський лей to UAH: 1.9615
16. Новозеландський долар to UAH: 22.5775
17. Норвезька крона to UAH: 3.3942
18. Російський рубль to UAH: 0.47854
19. Сінгапурський долар to UAH: 27.1361
20. Ренд to UAH: 1.9886
21. Шведська крона to UAH: 3.4623
22. Швейцарський франк to UAH: 39.4611
23. Єгипетський фунт to UAH: 1.1826
24. Фунт стерлінгів to UAH: 44.1109
25. Долар США to UAH: 36.5686
26. Білоруський рубль to UAH: 13.2919
27. Азербайджанський манат to UAH: 21.5515
28. Румунський лей to UAH: 7.8701
29. Турецька ліра to UAH: 1.9244
30. СПЗ (спеціальні права запозичення) to UAH: 48.7281
31. Болгарський лев to UAH: 19.7968
32. Євро to UAH: 38.717
33. Злотий to UAH: 8.2456
34. Алжирський динар to UAH: 0.26723
35. Така to UAH: 0.3458
36. Вірменський драм to UAH: 0.093925
37. Домініканське песо to UAH: 0.66051
38. Іранський ріал to UAH: 0.00087068
39. Іракський динар to UAH: 0.027915
40. Сом to UAH: 0.41831
41. Ліванський фунт to UAH: 0.002438
42. Лівійський динар to UAH: 7.5589
43. Малайзійський ринггіт to UAH: 8.1499
44. Марокканський дирхам to UAH: 3.5203
45. Пакистанська рупія to UAH: 0.13997
46. Саудівський ріял to UAH: 9.7441
47. Донг to UAH: 0.0015371
48. Бат to UAH: 1.03433
49. Дирхам ОАЕ to UAH: 9.9563
50. Туніський динар to UAH: 11.6409
51. Узбецький сум to UAH: 0.0032259
52. Новий тайванський долар to UAH: 1.19701
53. Туркменський новий манат to UAH: 10.4482
54. Сербський динар to UAH: 0.33086
55. Сомоні to UAH: 3.35
56. Ларі to UAH: 13.9965
57. Бразильський реал to UAH: 7.03
58. Золото to UAH: 70574.11
59. Срібло to UAH: 801.76
60. Платина to UAH: 35588.2
61. Паладій to UAH: 52647.81
